14:52:18,982  ERROR MailHelper                (157): javax.mail.SendFailedException: Sending failed;
  nested exception is: 
	javax.mail.MessagingException: IOException while sending message;
  nested exception is: 
	java.io.IOException: No content
	at javax.mail.Transport.send0(Transport.java:219)
	at javax.mail.Transport.send(Transport.java:81)
	at com.spice.automailer.MailHelper.sendMail(MailHelper.java:144)
	at com.spice.automailer.MailHelper.sendMailRequest(MailHelper.java:63)
	at com.spice.automailer.ObdMisMailerMain.main(ObdMisMailerMain.java:44)

 14:52:18,991  DEBUG MailHelper                (161): mail send
 14:52:18,992  DEBUG ObdMisMailerMain          (45): Program is END..
 14:54:34,735  ERROR MailHelper                (157): javax.mail.SendFailedException: Sending failed;
  nested exception is: 
	javax.mail.MessagingException: IOException while sending message;
  nested exception is: 
	java.io.IOException: No content
	at javax.mail.Transport.send0(Transport.java:219)
	at javax.mail.Transport.send(Transport.java:81)
	at com.spice.automailer.MailHelper.sendMail(MailHelper.java:144)
	at com.spice.automailer.MailHelper.sendMailRequest(MailHelper.java:63)
	at com.spice.automailer.ObdMisMailerMain.main(ObdMisMailerMain.java:44)

 14:54:34,741  DEBUG MailHelper                (161): mail send
 14:54:34,742  DEBUG ObdMisMailerMain          (45): Program is END..
 15:08:18,524  ERROR MailHelper                (157): javax.mail.SendFailedException: Sending failed;
  nested exception is: 
	javax.mail.MessagingException: IOException while sending message;
  nested exception is: 
	java.io.IOException: No content
	at javax.mail.Transport.send0(Transport.java:219)
	at javax.mail.Transport.send(Transport.java:81)
	at com.spice.automailer.MailHelper.sendMail(MailHelper.java:144)
	at com.spice.automailer.MailHelper.sendMailRequest(MailHelper.java:63)
	at com.spice.automailer.ObdMisMailerMain.main(ObdMisMailerMain.java:44)

 15:08:18,532  DEBUG MailHelper                (161): mail send
 15:08:18,532  DEBUG ObdMisMailerMain          (45): Program is END..
 15:14:29,712  ERROR MailHelper                (157): javax.mail.SendFailedException: Sending failed;
  nested exception is: 
	javax.mail.MessagingException: IOException while sending message;
  nested exception is: 
	java.io.IOException: No content
	at javax.mail.Transport.send0(Transport.java:219)
	at javax.mail.Transport.send(Transport.java:81)
	at com.spice.automailer.MailHelper.sendMail(MailHelper.java:144)
	at com.spice.automailer.MailHelper.sendMailRequest(MailHelper.java:63)
	at com.spice.automailer.ObdMisMailerMain.main(ObdMisMailerMain.java:44)

 15:14:29,722  DEBUG MailHelper                (161): mail send
 15:14:29,723  DEBUG ObdMisMailerMain          (45): Program is END..
 15:52:57,279  ERROR MailHelper                (157): javax.mail.SendFailedException: Sending failed;
  nested exception is: 
	javax.mail.MessagingException: IOException while sending message;
  nested exception is: 
	java.io.FileNotFoundException: d:\temp\a.txt,d:\temp\b.txt (The filename, directory name, or volume label syntax is incorrect)
	at javax.mail.Transport.send0(Transport.java:219)
	at javax.mail.Transport.send(Transport.java:81)
	at com.spice.automailer.MailHelper.sendMail(MailHelper.java:144)
	at com.spice.automailer.MailHelper.sendMailRequest(MailHelper.java:63)
	at com.spice.automailer.ObdMisMailerMain.main(ObdMisMailerMain.java:63)

 15:52:57,323  DEBUG MailHelper                (161): mail send
 15:52:57,324  DEBUG ObdMisMailerMain          (64): Program is END..
 15:53:31,014  ERROR MailHelper                (157): javax.mail.SendFailedException: Sending failed;
  nested exception is: 
	javax.mail.MessagingException: IOException while sending message;
  nested exception is: 
	java.io.FileNotFoundException: d:\temp\a.txt,d:\temp\b.txt (The filename, directory name, or volume label syntax is incorrect)
	at javax.mail.Transport.send0(Transport.java:219)
	at javax.mail.Transport.send(Transport.java:81)
	at com.spice.automailer.MailHelper.sendMail(MailHelper.java:144)
	at com.spice.automailer.MailHelper.sendMailRequest(MailHelper.java:63)
	at com.spice.automailer.ObdMisMailerMain.main(ObdMisMailerMain.java:63)

 15:53:31,018  DEBUG MailHelper                (161): mail send
 15:53:31,018  DEBUG ObdMisMailerMain          (64): Program is END..
 15:53:45,391  ERROR MailHelper                (157): javax.mail.SendFailedException: Sending failed;
  nested exception is: 
	javax.mail.MessagingException: IOException while sending message;
  nested exception is: 
	java.io.FileNotFoundException: d:\temp\a.txt,d:\temp\b.txt (The filename, directory name, or volume label syntax is incorrect)
	at javax.mail.Transport.send0(Transport.java:219)
	at javax.mail.Transport.send(Transport.java:81)
	at com.spice.automailer.MailHelper.sendMail(MailHelper.java:144)
	at com.spice.automailer.MailHelper.sendMailRequest(MailHelper.java:63)
	at com.spice.automailer.ObdMisMailerMain.main(ObdMisMailerMain.java:63)

 15:53:45,396  DEBUG MailHelper                (161): mail send
 15:53:45,397  DEBUG ObdMisMailerMain          (64): Program is END..
 15:57:05,238  ERROR MailHelper                (157): javax.mail.SendFailedException: Sending failed;
  nested exception is: 
	javax.mail.MessagingException: IOException while sending message;
  nested exception is: 
	java.io.FileNotFoundException: d:\temp\a.txt,d:\temp\b.txt (The filename, directory name, or volume label syntax is incorrect)
	at javax.mail.Transport.send0(Transport.java:219)
	at javax.mail.Transport.send(Transport.java:81)
	at com.spice.automailer.MailHelper.sendMail(MailHelper.java:144)
	at com.spice.automailer.MailHelper.sendMailRequest(MailHelper.java:63)
	at com.spice.automailer.ObdMisMailerMain.main(ObdMisMailerMain.java:63)

 15:57:05,243  DEBUG MailHelper                (161): mail send
 15:57:05,244  DEBUG ObdMisMailerMain          (64): Program is END..
 15:58:51,658  DEBUG MailHelper                (147): Message sent to ashish.guleria@spicedigital.in OK.
 15:58:51,666  DEBUG MailHelper                (150): Message sent to[CC] ashish.guleria@spicedigital.in OK.
 15:58:51,667  DEBUG MailHelper                (153): Message sent to[BCC] ashish.guleria@spicedigital.in OK.
 15:58:51,668  DEBUG MailHelper                (161): mail send
 15:58:51,669  DEBUG ObdMisMailerMain          (64): Program is END..
 16:01:50,922  DEBUG MailHelper                (147): Message sent to ashish.guleria@spicedigital.in OK.
 16:01:50,930  DEBUG MailHelper                (150): Message sent to[CC] ashish.guleria@spicedigital.in OK.
 16:01:50,931  DEBUG MailHelper                (153): Message sent to[BCC] ashish.guleria@spicedigital.in OK.
 16:01:50,932  DEBUG MailHelper                (161): mail send
 16:01:50,934  DEBUG ObdMisMailerMain          (64): Program is END..
 