00:14:33,944  DEBUG AgentMis                  (21): java.io.FileNotFoundException: .\config.properties (The system cannot find the file specified)
	at java.io.FileInputStream.open0(Native Method)
	at java.io.FileInputStream.open(Unknown Source)
	at java.io.FileInputStream.<init>(Unknown Source)
	at java.io.FileInputStream.<init>(Unknown Source)
	at com.spice.yaari.hourlyagentmis.AgentMis.<init>(AgentMis.java:18)
	at com.spice.yaari.hourlyagentmis.AgentMis.main(AgentMis.java:27)

 00:14:33,977  DEBUG AgentMis                  (42): date return[20170509]
 00:14:34,563  DEBUG GenerateExcel             (79): java.io.FileNotFoundException: .\config.properties (The system cannot find the file specified)
	at java.io.FileInputStream.open0(Native Method)
	at java.io.FileInputStream.open(Unknown Source)
	at java.io.FileInputStream.<init>(Unknown Source)
	at java.io.FileInputStream.<init>(Unknown Source)
	at com.spice.yaari.hourlyagentmis.GenerateExcel.<init>(GenerateExcel.java:58)
	at com.spice.yaari.hourlyagentmis.AgentMis.main(AgentMis.java:29)

 00:14:34,564  DEBUG GenerateExcel             (124): connect is [null]
 00:14:34,564  DEBUG GenerateExcel             (137): java.lang.IllegalArgumentException: sheetName must not be null
	at org.apache.poi.xssf.usermodel.XSSFWorkbook.createSheet(XSSFWorkbook.java:615)
	at com.spice.yaari.hourlyagentmis.GenerateExcel.getExcelProcess(GenerateExcel.java:125)
	at com.spice.yaari.hourlyagentmis.AgentMis.main(AgentMis.java:30)

 00:14:34,663  DEBUG AgentMis                  (33): Program is END..
 00:14:51,556  DEBUG AgentMis                  (21): java.io.FileNotFoundException: .\config.properties (The system cannot find the file specified)
	at java.io.FileInputStream.open0(Native Method)
	at java.io.FileInputStream.open(Unknown Source)
	at java.io.FileInputStream.<init>(Unknown Source)
	at java.io.FileInputStream.<init>(Unknown Source)
	at com.spice.yaari.hourlyagentmis.AgentMis.<init>(AgentMis.java:18)
	at com.spice.yaari.hourlyagentmis.AgentMis.main(AgentMis.java:27)

 00:14:51,558  DEBUG AgentMis                  (42): date return[20170509]
 00:14:52,124  DEBUG GenerateExcel             (79): java.io.FileNotFoundException: .\config.properties (The system cannot find the file specified)
	at java.io.FileInputStream.open0(Native Method)
	at java.io.FileInputStream.open(Unknown Source)
	at java.io.FileInputStream.<init>(Unknown Source)
	at java.io.FileInputStream.<init>(Unknown Source)
	at com.spice.yaari.hourlyagentmis.GenerateExcel.<init>(GenerateExcel.java:58)
	at com.spice.yaari.hourlyagentmis.AgentMis.main(AgentMis.java:29)

 00:14:52,125  DEBUG GenerateExcel             (124): connect is [null]
 00:14:52,125  DEBUG GenerateExcel             (137): java.lang.IllegalArgumentException: sheetName must not be null
	at org.apache.poi.xssf.usermodel.XSSFWorkbook.createSheet(XSSFWorkbook.java:615)
	at com.spice.yaari.hourlyagentmis.GenerateExcel.getExcelProcess(GenerateExcel.java:125)
	at com.spice.yaari.hourlyagentmis.AgentMis.main(AgentMis.java:30)

 00:14:52,259  DEBUG AgentMis                  (33): Program is END..
 00:16:42,889  DEBUG AgentMis                  (21): java.lang.NumberFormatException: null
	at java.lang.Integer.parseInt(Unknown Source)
	at java.lang.Integer.parseInt(Unknown Source)
	at com.spice.yaari.hourlyagentmis.AgentMis.<init>(AgentMis.java:19)
	at com.spice.yaari.hourlyagentmis.AgentMis.main(AgentMis.java:27)

 00:16:42,892  DEBUG AgentMis                  (42): date return[20170509]
 00:16:43,397  DEBUG GenerateExcel             (124): connect is [null]
 00:16:43,925  DEBUG AgentMis                  (33): Program is END..
 00:17:11,341  DEBUG GenerateExcel             (124): connect is [null]
 00:17:11,578  DEBUG AgentMis                  (33): Program is END..
 00:18:29,528  DEBUG AgentMis                  (23): java.lang.NumberFormatException: null
	at java.lang.Integer.parseInt(Unknown Source)
	at java.lang.Integer.parseInt(Unknown Source)
	at com.spice.yaari.hourlyagentmis.AgentMis.<init>(AgentMis.java:21)
	at com.spice.yaari.hourlyagentmis.AgentMis.main(AgentMis.java:29)

 00:18:29,531  DEBUG AgentMis                  (44): date return[20170509]
 00:18:30,045  DEBUG GenerateExcel             (124): connect is [null]
 00:18:30,252  DEBUG AgentMis                  (35): Program is END..
 00:18:53,719  DEBUG AgentMis                  (23): java.lang.NumberFormatException: null
	at java.lang.Integer.parseInt(Unknown Source)
	at java.lang.Integer.parseInt(Unknown Source)
	at com.spice.yaari.hourlyagentmis.AgentMis.<init>(AgentMis.java:21)
	at com.spice.yaari.hourlyagentmis.AgentMis.main(AgentMis.java:29)

 00:18:53,721  DEBUG AgentMis                  (44): date return[20170509]
 00:18:54,206  DEBUG GenerateExcel             (124): connect is [null]
 00:18:54,422  DEBUG AgentMis                  (35): Program is END..
 00:19:21,277  DEBUG AgentMis                  (44): date return[20170508]
 00:19:21,773  DEBUG GenerateExcel             (124): connect is [null]
 00:19:22,007  DEBUG AgentMis                  (35): Program is END..
 00:21:05,052  DEBUG AgentMis                  (44): date return[20170508]
 00:21:05,554  DEBUG GenerateExcel             (124): connect is [null]
 00:21:05,765  DEBUG AgentMis                  (35): Program is END..
 00:22:07,595  DEBUG AgentMis                  (44): date return[20170508]
 00:22:08,068  DEBUG GenerateExcel             (124): connect is [null]
 00:22:08,270  DEBUG AgentMis                  (35): Program is END..
 00:39:58,954  DEBUG AgentMis                  (46): date return[20170508]
 00:40:00,257  DEBUG GenerateExcel             (111): connect is [com.mysql.jdbc.JDBC4Connection@ed9d034]
 00:40:00,540  DEBUG GenerateExcel             (137): java.sql.SQLException: Cannot convert value '0000-00-00 00:00:00' from column 6 to TIMESTAMP.
	at com.mysql.jdbc.SQLError.createSQLException(SQLError.java:1055)
	at com.mysql.jdbc.SQLError.createSQLException(SQLError.java:956)
	at com.mysql.jdbc.SQLError.createSQLException(SQLError.java:926)
	at com.mysql.jdbc.ResultSetImpl.getTimestampFromString(ResultSetImpl.java:6343)
	at com.mysql.jdbc.ResultSetImpl.getStringInternal(ResultSetImpl.java:5670)
	at com.mysql.jdbc.ResultSetImpl.getString(ResultSetImpl.java:5491)
	at com.mysql.jdbc.ResultSetImpl.getString(ResultSetImpl.java:5531)
	at com.spice.yaari.hourlyagentmis.GenerateExcel.getExcelProcess(GenerateExcel.java:131)
	at com.spice.yaari.hourlyagentmis.AgentMis.main(AgentMis.java:32)
Caused by: java.sql.SQLException: Value '0000-00-00 00:00:00' can not be represented as java.sql.Timestamp
	at com.mysql.jdbc.SQLError.createSQLException(SQLError.java:1055)
	at com.mysql.jdbc.SQLError.createSQLException(SQLError.java:956)
	at com.mysql.jdbc.SQLError.createSQLException(SQLError.java:926)
	at com.mysql.jdbc.ResultSetImpl.getTimestampFromString(ResultSetImpl.java:6094)
	... 5 more

 00:40:00,641  DEBUG AgentMis                  (35): Program is END..
 00:42:52,012  DEBUG AgentMis                  (46): date return[20170508]
 00:42:52,890  DEBUG GenerateExcel             (111): connect is [com.mysql.jdbc.JDBC4Connection@ed9d034]
 00:42:53,062  DEBUG GenerateExcel             (138): java.sql.SQLException: Cannot convert value '0000-00-00 00:00:00' from column 6 to TIMESTAMP.
	at com.mysql.jdbc.SQLError.createSQLException(SQLError.java:1055)
	at com.mysql.jdbc.SQLError.createSQLException(SQLError.java:956)
	at com.mysql.jdbc.SQLError.createSQLException(SQLError.java:926)
	at com.mysql.jdbc.ResultSetImpl.getTimestampFromString(ResultSetImpl.java:6343)
	at com.mysql.jdbc.ResultSetImpl.getStringInternal(ResultSetImpl.java:5670)
	at com.mysql.jdbc.ResultSetImpl.getString(ResultSetImpl.java:5491)
	at com.mysql.jdbc.ResultSetImpl.getString(ResultSetImpl.java:5531)
	at com.spice.yaari.hourlyagentmis.GenerateExcel.getExcelProcess(GenerateExcel.java:131)
	at com.spice.yaari.hourlyagentmis.AgentMis.main(AgentMis.java:32)
Caused by: java.sql.SQLException: Value '0000-00-00 00:00:00' can not be represented as java.sql.Timestamp
	at com.mysql.jdbc.SQLError.createSQLException(SQLError.java:1055)
	at com.mysql.jdbc.SQLError.createSQLException(SQLError.java:956)
	at com.mysql.jdbc.SQLError.createSQLException(SQLError.java:926)
	at com.mysql.jdbc.ResultSetImpl.getTimestampFromString(ResultSetImpl.java:6094)
	... 5 more

 00:42:53,185  DEBUG AgentMis                  (35): Program is END..
 00:58:29,608  DEBUG AgentMis                  (46): date return[20170508]
 00:58:30,449  DEBUG GenerateExcel             (111): connect is [com.mysql.jdbc.JDBC4Connection@ed9d034]
 00:58:30,709  DEBUG AgentMis                  (35): Program is END..
 00:59:32,423  DEBUG AgentMis                  (46): date return[20170508]
 00:59:33,207  DEBUG GenerateExcel             (111): connect is [com.mysql.jdbc.JDBC4Connection@ed9d034]
 00:59:33,364  DEBUG GenerateExcel             (171): java.io.FileNotFoundException: .\misData\YaariAgent_MIS_20170508.xlsx (The process cannot access the file because it is being used by another process)
	at java.io.FileOutputStream.open0(Native Method)
	at java.io.FileOutputStream.open(Unknown Source)
	at java.io.FileOutputStream.<init>(Unknown Source)
	at java.io.FileOutputStream.<init>(Unknown Source)
	at com.spice.yaari.hourlyagentmis.GenerateExcel.saveExcels(GenerateExcel.java:167)
	at com.spice.yaari.hourlyagentmis.GenerateExcel.getExcelProcess(GenerateExcel.java:158)
	at com.spice.yaari.hourlyagentmis.AgentMis.main(AgentMis.java:32)

 00:59:33,366  DEBUG GenerateExcel             (160): java.lang.NullPointerException
	at com.spice.yaari.hourlyagentmis.GenerateExcel.saveExcels(GenerateExcel.java:174)
	at com.spice.yaari.hourlyagentmis.GenerateExcel.getExcelProcess(GenerateExcel.java:158)
	at com.spice.yaari.hourlyagentmis.AgentMis.main(AgentMis.java:32)

 00:59:33,366  DEBUG AgentMis                  (35): Program is END..
 00:59:47,230  DEBUG AgentMis                  (46): date return[20170508]
 00:59:47,961  DEBUG GenerateExcel             (111): connect is [com.mysql.jdbc.JDBC4Connection@ed9d034]
 00:59:48,197  DEBUG AgentMis                  (35): Program is END..
 01:04:41,709  DEBUG AgentMis                  (46): date return[20170508]
 01:04:42,497  DEBUG GenerateExcel             (111): connect is [com.mysql.jdbc.JDBC4Connection@ed9d034]
 01:04:42,670  DEBUG GenerateExcel             (171): java.io.FileNotFoundException: .\misData\YaariAgent_MIS_20170508.xlsx (The process cannot access the file because it is being used by another process)
	at java.io.FileOutputStream.open0(Native Method)
	at java.io.FileOutputStream.open(Unknown Source)
	at java.io.FileOutputStream.<init>(Unknown Source)
	at java.io.FileOutputStream.<init>(Unknown Source)
	at com.spice.yaari.hourlyagentmis.GenerateExcel.saveExcels(GenerateExcel.java:167)
	at com.spice.yaari.hourlyagentmis.GenerateExcel.getExcelProcess(GenerateExcel.java:158)
	at com.spice.yaari.hourlyagentmis.AgentMis.main(AgentMis.java:32)

 01:04:42,671  DEBUG GenerateExcel             (160): java.lang.NullPointerException
	at com.spice.yaari.hourlyagentmis.GenerateExcel.saveExcels(GenerateExcel.java:174)
	at com.spice.yaari.hourlyagentmis.GenerateExcel.getExcelProcess(GenerateExcel.java:158)
	at com.spice.yaari.hourlyagentmis.AgentMis.main(AgentMis.java:32)

 01:04:42,672  DEBUG AgentMis                  (35): Program is END..
 01:04:51,860  DEBUG AgentMis                  (46): date return[20170508]
 01:04:52,682  DEBUG GenerateExcel             (111): connect is [com.mysql.jdbc.JDBC4Connection@ed9d034]
 01:04:52,939  DEBUG AgentMis                  (35): Program is END..
 01:06:29,111  DEBUG AgentMis                  (46): date return[20170508]
 01:06:30,005  DEBUG GenerateExcel             (111): connect is [com.mysql.jdbc.JDBC4Connection@ed9d034]
 01:06:30,291  DEBUG AgentMis                  (35): Program is END..
 01:09:02,197  DEBUG AgentMis                  (46): date return[20170508]
 01:09:03,178  DEBUG GenerateExcel             (111): connect is [com.mysql.jdbc.JDBC4Connection@ed9d034]
 01:09:03,386  DEBUG GenerateExcel             (171): java.io.FileNotFoundException: .\misData\YaariAgent_MIS_20170508.xlsx (The process cannot access the file because it is being used by another process)
	at java.io.FileOutputStream.open0(Native Method)
	at java.io.FileOutputStream.open(Unknown Source)
	at java.io.FileOutputStream.<init>(Unknown Source)
	at java.io.FileOutputStream.<init>(Unknown Source)
	at com.spice.yaari.hourlyagentmis.GenerateExcel.saveExcels(GenerateExcel.java:167)
	at com.spice.yaari.hourlyagentmis.GenerateExcel.getExcelProcess(GenerateExcel.java:158)
	at com.spice.yaari.hourlyagentmis.AgentMis.main(AgentMis.java:32)

 01:09:03,388  DEBUG GenerateExcel             (160): java.lang.NullPointerException
	at com.spice.yaari.hourlyagentmis.GenerateExcel.saveExcels(GenerateExcel.java:174)
	at com.spice.yaari.hourlyagentmis.GenerateExcel.getExcelProcess(GenerateExcel.java:158)
	at com.spice.yaari.hourlyagentmis.AgentMis.main(AgentMis.java:32)

 01:09:03,388  DEBUG AgentMis                  (35): Program is END..
 01:09:10,044  DEBUG AgentMis                  (46): date return[20170508]
 01:09:10,921  DEBUG GenerateExcel             (111): connect is [com.mysql.jdbc.JDBC4Connection@ed9d034]
 01:09:11,202  DEBUG AgentMis                  (35): Program is END..
 01:16:13,576  DEBUG AgentMis                  (46): date return[20170508]
 01:16:14,498  DEBUG GenerateExcel             (111): connect is [com.mysql.jdbc.JDBC4Connection@ed9d034]
 01:16:14,660  DEBUG GenerateExcel             (146): com.mysql.jdbc.exceptions.jdbc4.MySQLDataException: '7.065449403E9' in column '10' is outside valid range for the datatype INTEGER.
	at sun.reflect.NativeConstructorAccessorImpl.newInstance0(Native Method)
	at sun.reflect.NativeConstructorAccessorImpl.newInstance(Unknown Source)
	at sun.reflect.DelegatingConstructorAccessorImpl.newInstance(Unknown Source)
	at java.lang.reflect.Constructor.newInstance(Unknown Source)
	at com.mysql.jdbc.Util.handleNewInstance(Util.java:406)
	at com.mysql.jdbc.Util.getInstance(Util.java:381)
	at com.mysql.jdbc.SQLError.createSQLException(SQLError.java:999)
	at com.mysql.jdbc.SQLError.createSQLException(SQLError.java:956)
	at com.mysql.jdbc.SQLError.createSQLException(SQLError.java:926)
	at com.mysql.jdbc.ResultSetImpl.throwRangeException(ResultSetImpl.java:7872)
	at com.mysql.jdbc.ResultSetImpl.parseIntAsDouble(ResultSetImpl.java:7114)
	at com.mysql.jdbc.ResultSetImpl.getInt(ResultSetImpl.java:2666)
	at com.mysql.jdbc.ResultSetImpl.getInt(ResultSetImpl.java:2777)
	at com.spice.yaari.hourlyagentmis.GenerateExcel.getExcelProcess(GenerateExcel.java:137)
	at com.spice.yaari.hourlyagentmis.AgentMis.main(AgentMis.java:32)

 01:16:14,777  DEBUG AgentMis                  (35): Program is END..
 01:18:33,789  DEBUG AgentMis                  (46): date return[20170508]
 01:18:34,706  DEBUG GenerateExcel             (111): connect is [com.mysql.jdbc.JDBC4Connection@ed9d034]
 01:18:35,012  DEBUG AgentMis                  (35): Program is END..
 01:22:56,114  DEBUG AgentMis                  (46): date return[20170508]
 01:22:57,283  DEBUG GenerateExcel             (112): connect is [com.mysql.jdbc.JDBC4Connection@710726a3]
 01:22:57,432  DEBUG GenerateExcel             (175): java.io.FileNotFoundException: .\misData\YaariAgent_MIS_20170508.xlsx (The process cannot access the file because it is being used by another process)
	at java.io.FileOutputStream.open0(Native Method)
	at java.io.FileOutputStream.open(Unknown Source)
	at java.io.FileOutputStream.<init>(Unknown Source)
	at java.io.FileOutputStream.<init>(Unknown Source)
	at com.spice.yaari.hourlyagentmis.GenerateExcel.saveExcels(GenerateExcel.java:171)
	at com.spice.yaari.hourlyagentmis.GenerateExcel.getExcelProcess(GenerateExcel.java:162)
	at com.spice.yaari.hourlyagentmis.AgentMis.main(AgentMis.java:32)

 01:22:57,433  DEBUG GenerateExcel             (164): java.lang.NullPointerException
	at com.spice.yaari.hourlyagentmis.GenerateExcel.saveExcels(GenerateExcel.java:178)
	at com.spice.yaari.hourlyagentmis.GenerateExcel.getExcelProcess(GenerateExcel.java:162)
	at com.spice.yaari.hourlyagentmis.AgentMis.main(AgentMis.java:32)

 01:22:57,433  DEBUG AgentMis                  (35): Program is END..
 01:23:04,596  DEBUG AgentMis                  (46): date return[20170508]
 01:23:05,634  DEBUG GenerateExcel             (112): connect is [com.mysql.jdbc.JDBC4Connection@710726a3]
 01:23:05,879  DEBUG AgentMis                  (35): Program is END..
 01:25:37,183  DEBUG AgentMis                  (46): date return[20170508]
 01:25:38,462  DEBUG GenerateExcel             (112): connect is [com.mysql.jdbc.JDBC4Connection@710726a3]
 01:25:38,821  DEBUG AgentMis                  (35): Program is END..
 09:43:58,160  DEBUG AgentMis                  (46): date return[20170508]
 09:43:59,290  DEBUG GenerateExcel             (99): connect is [com.mysql.jdbc.JDBC4Connection@149494d8]
 09:43:59,545  DEBUG AgentMis                  (35): Program is END..
 09:48:59,432  DEBUG AgentMis                  (49): date return[20170508]
 09:49:00,569  DEBUG GenerateExcel             (99): connect is [com.mysql.jdbc.JDBC4Connection@149494d8]
 09:49:00,797  DEBUG AgentMis                  (35): Program is END..
 09:54:44,094  DEBUG AgentMis                  (56): date return[20170508]
 09:54:45,080  DEBUG GenerateExcel             (99): connect is [com.mysql.jdbc.JDBC4Connection@149494d8]
 09:54:45,350  DEBUG AgentMis                  (45): Program is END..
 09:55:05,498  DEBUG AgentMis                  (56): date return[20170508]
 09:55:06,515  DEBUG GenerateExcel             (99): connect is [com.mysql.jdbc.JDBC4Connection@149494d8]
 09:55:06,744  DEBUG AgentMis                  (45): Program is END..
 09:55:38,373  DEBUG AgentMis                  (56): date return[20170507]
 09:55:39,452  DEBUG GenerateExcel             (99): connect is [com.mysql.jdbc.JDBC4Connection@149494d8]
 09:55:39,730  DEBUG AgentMis                  (45): Program is END..
 09:56:14,671  DEBUG AgentMis                  (56): date return[20170508]
 09:56:15,693  DEBUG GenerateExcel             (99): connect is [com.mysql.jdbc.JDBC4Connection@149494d8]
 09:56:15,932  DEBUG AgentMis                  (45): Program is END..
 09:59:30,271  DEBUG AgentMis                  (55): date return[20170508]
 09:59:31,298  DEBUG GenerateExcel             (99): connect is [com.mysql.jdbc.JDBC4Connection@149494d8]
 09:59:44,822  DEBUG MailHelper                (156): Message sent to ashish.guleria@spicedigital.in OK.
 09:59:44,824  DEBUG MailHelper                (159): Message sent to[CC] shamsher.singh@spicedigital.in OK.
 09:59:44,825  DEBUG MailHelper                (162): Message sent to[BCC] ashish.guleria@spicedigital.in OK.
 09:59:44,826  DEBUG MailHelper                (170): mail send
 09:59:44,827  DEBUG AgentMis                  (44): Program is END..
 