14:08:41,986  DEBUG AuditMis  (107 ): accessFile() = true
14:08:41,999  DEBUG AuditMis  (73  ): File is locked. Starting the execution of the Application
14:08:41,999  INFO  AuditMis  (33  ): program is started..
14:08:42,000  DEBUG AuditMis  (48  ): Process going to execute for date [20170630]
14:08:42,017  DEBUG CollectAuditData (39  ): java.lang.NullPointerException
	at in.spicedigital.auditMailer.controller.CollectAuditData.<init>(CollectAuditData.java:37)
	at in.spicedigital.auditMailer.controller.AuditMis.main(AuditMis.java:49)

14:08:42,018  ERROR AuditMis  (61  ): java.lang.NullPointerException
	at in.spicedigital.auditMailer.controller.CollectAuditData.arrangeData(CollectAuditData.java:51)
	at in.spicedigital.auditMailer.controller.AuditMis.main(AuditMis.java:50)

14:09:35,286  DEBUG AuditMis  (107 ): accessFile() = true
14:09:35,298  DEBUG AuditMis  (73  ): File is locked. Starting the execution of the Application
14:09:35,298  INFO  AuditMis  (33  ): program is started..
14:09:35,299  DEBUG AuditMis  (48  ): Process going to execute for date [20170630]
14:09:35,316  DEBUG CollectAuditData (39  ): java.lang.NullPointerException
	at in.spicedigital.auditMailer.controller.CollectAuditData.<init>(CollectAuditData.java:37)
	at in.spicedigital.auditMailer.controller.AuditMis.main(AuditMis.java:49)

14:09:35,317  ERROR AuditMis  (61  ): java.lang.NullPointerException
	at in.spicedigital.auditMailer.controller.CollectAuditData.arrangeData(CollectAuditData.java:51)
	at in.spicedigital.auditMailer.controller.AuditMis.main(AuditMis.java:50)

14:10:40,352  DEBUG AuditMis  (107 ): accessFile() = true
14:10:40,364  ERROR AuditMis  (76  ): Cannot create lock. Already another instance of the program is running.
14:10:40,364  ERROR AuditMis  (77  ): System shutting down. Please wait...
14:10:52,961  DEBUG AuditMis  (107 ): accessFile() = true
14:10:53,195  ERROR AuditMis  (76  ): Cannot create lock. Already another instance of the program is running.
14:10:53,196  ERROR AuditMis  (77  ): System shutting down. Please wait...
14:11:06,423  DEBUG AuditMis  (107 ): accessFile() = true
14:11:06,436  DEBUG AuditMis  (73  ): File is locked. Starting the execution of the Application
14:11:06,436  INFO  AuditMis  (33  ): program is started..
14:11:06,437  DEBUG AuditMis  (48  ): Process going to execute for date [20170630]
14:11:06,563  DEBUG CollectAuditData (39  ): java.lang.NullPointerException
	at in.spicedigital.auditMailer.controller.CollectAuditData.<init>(CollectAuditData.java:37)
	at in.spicedigital.auditMailer.controller.AuditMis.main(AuditMis.java:49)

14:11:06,618  ERROR AuditMis  (61  ): java.lang.NullPointerException
	at in.spicedigital.auditMailer.controller.CollectAuditData.arrangeData(CollectAuditData.java:51)
	at in.spicedigital.auditMailer.controller.AuditMis.main(AuditMis.java:50)

14:12:51,704  DEBUG AuditMis  (107 ): accessFile() = true
14:12:51,718  DEBUG AuditMis  (73  ): File is locked. Starting the execution of the Application
14:12:51,718  INFO  AuditMis  (33  ): program is started..
14:12:51,719  DEBUG AuditMis  (48  ): Process going to execute for date [20170726]
14:12:51,735  DEBUG CollectAuditData (39  ): java.lang.NullPointerException
	at in.spicedigital.auditMailer.controller.CollectAuditData.<init>(CollectAuditData.java:37)
	at in.spicedigital.auditMailer.controller.AuditMis.main(AuditMis.java:49)

14:12:51,736  ERROR AuditMis  (61  ): java.lang.NullPointerException
	at in.spicedigital.auditMailer.controller.CollectAuditData.arrangeData(CollectAuditData.java:51)
	at in.spicedigital.auditMailer.controller.AuditMis.main(AuditMis.java:50)

14:13:12,845  DEBUG AuditMis  (107 ): accessFile() = true
14:13:12,857  DEBUG AuditMis  (73  ): File is locked. Starting the execution of the Application
14:13:12,857  INFO  AuditMis  (33  ): program is started..
14:13:12,858  DEBUG AuditMis  (48  ): Process going to execute for date [20170630]
14:13:12,875  DEBUG CollectAuditData (39  ): java.lang.NullPointerException
	at in.spicedigital.auditMailer.controller.CollectAuditData.<init>(CollectAuditData.java:37)
	at in.spicedigital.auditMailer.controller.AuditMis.main(AuditMis.java:49)

14:13:12,876  ERROR AuditMis  (61  ): java.lang.NullPointerException
	at in.spicedigital.auditMailer.controller.CollectAuditData.arrangeData(CollectAuditData.java:51)
	at in.spicedigital.auditMailer.controller.AuditMis.main(AuditMis.java:50)

