19:11:04,753  DEBUG GenerateExcel             (69): java.io.FileNotFoundException: d:\ (The system cannot find the path specified)
	at java.io.FileOutputStream.open0(Native Method)
	at java.io.FileOutputStream.open(FileOutputStream.java:270)
	at java.io.FileOutputStream.<init>(FileOutputStream.java:213)
	at java.io.FileOutputStream.<init>(FileOutputStream.java:101)
	at in.spicedigital.mis.bhakti.katha.GenerateExcel.saveExcels(GenerateExcel.java:65)
	at in.spicedigital.mis.bhakti.katha.GenerateExcel.createExcel(GenerateExcel.java:54)
	at in.spicedigital.mis.bhakti.katha.BhaktikathaMisMain.main(BhaktikathaMisMain.java:16)

 19:41:41,648  DEBUG GenerateExcel             (73): java.io.FileNotFoundException: .\misData\abc.xlsx (The process cannot access the file because it is being used by another process)
	at java.io.FileOutputStream.open0(Native Method)
	at java.io.FileOutputStream.open(FileOutputStream.java:270)
	at java.io.FileOutputStream.<init>(FileOutputStream.java:213)
	at java.io.FileOutputStream.<init>(FileOutputStream.java:101)
	at in.spicedigital.mis.bhakti.katha.GenerateExcel.saveExcels(GenerateExcel.java:69)
	at in.spicedigital.mis.bhakti.katha.GenerateExcel.createExcel(GenerateExcel.java:58)
	at in.spicedigital.mis.bhakti.katha.BhaktikathaMisMain.main(BhaktikathaMisMain.java:16)

 21:03:33,145  DEBUG GenerateExcel             (83): java.io.FileNotFoundException: .\misData\abc.xlsx (The process cannot access the file because it is being used by another process)
	at java.io.FileOutputStream.open0(Native Method)
	at java.io.FileOutputStream.open(FileOutputStream.java:270)
	at java.io.FileOutputStream.<init>(FileOutputStream.java:213)
	at java.io.FileOutputStream.<init>(FileOutputStream.java:101)
	at in.spicedigital.mis.bhakti.katha.GenerateExcel.saveExcels(GenerateExcel.java:79)
	at in.spicedigital.mis.bhakti.katha.GenerateExcel.createExcel(GenerateExcel.java:68)
	at in.spicedigital.mis.bhakti.katha.BhaktikathaMisMain.main(BhaktikathaMisMain.java:16)

 23:35:36,258  ERROR BhaktikathaMisMain        (24): java.io.FileNotFoundException: .\config.properties (The system cannot find the file specified)
	at java.io.FileInputStream.open0(Native Method)
	at java.io.FileInputStream.open(FileInputStream.java:195)
	at java.io.FileInputStream.<init>(FileInputStream.java:138)
	at java.io.FileInputStream.<init>(FileInputStream.java:93)
	at in.spicedigital.mis.bhakti.katha.BhaktikathaMisMain.<init>(BhaktikathaMisMain.java:21)
	at in.spicedigital.mis.bhakti.katha.BhaktikathaMisMain.main(BhaktikathaMisMain.java:48)

 