11:39:00,152  DEBUG AgentMis                  (47): date return[20170518]
 11:39:09,912  DEBUG MailHelper                (156): Message sent to ashish.guleria@spicedigital.in OK.
 11:39:09,913  DEBUG MailHelper                (159): Message sent to[CC] shamsher.singh@spicedigital.in OK.
 11:39:09,914  DEBUG MailHelper                (162): Message sent to[BCC] ashish.guleria@spicedigital.in OK.
 11:39:09,914  DEBUG MailHelper                (170): mail send
 11:39:09,915  DEBUG AgentMis                  (36): Program is END..
 11:52:37,891  DEBUG AgentMis                  (47): date return[20170518]
 11:52:48,081  DEBUG MailHelper                (156): Message sent to ashish.guleria@spicedigital.in OK.
 11:52:48,082  DEBUG MailHelper                (159): Message sent to[CC] ashish.guleria@spicedigital.in OK.
 11:52:48,083  DEBUG MailHelper                (162): Message sent to[BCC] ashish.guleria@spicedigital.in OK.
 11:52:48,084  DEBUG MailHelper                (170): mail send
 11:52:48,085  DEBUG AgentMis                  (36): Program is END..
 11:54:31,620  DEBUG AgentMis                  (47): date return[20170518]
 11:54:32,912  DEBUG GenerateExcel             (136): connect is [com.mysql.jdbc.JDBC4Connection@290dbf45]
 11:54:33,093  DEBUG GenerateExcel             (150): Query is [select * from TBL_AGENT_HOURLY_ALERTS where date(curr_date)='2017-05-08' order by hour desc]
 11:54:33,159  DEBUG GenerateExcel             (172): com.mysql.jdbc.exceptions.jdbc4.MySQLSyntaxErrorException: Table 'yaari.tbl_agent_hourly_alerts' doesn't exist
	at sun.reflect.NativeConstructorAccessorImpl.newInstance0(Native Method)
	at sun.reflect.NativeConstructorAccessorImpl.newInstance(Unknown Source)
	at sun.reflect.DelegatingConstructorAccessorImpl.newInstance(Unknown Source)
	at java.lang.reflect.Constructor.newInstance(Unknown Source)
	at com.mysql.jdbc.Util.handleNewInstance(Util.java:406)
	at com.mysql.jdbc.Util.getInstance(Util.java:381)
	at com.mysql.jdbc.SQLError.createSQLException(SQLError.java:1030)
	at com.mysql.jdbc.SQLError.createSQLException(SQLError.java:956)
	at com.mysql.jdbc.MysqlIO.checkErrorPacket(MysqlIO.java:3515)
	at com.mysql.jdbc.MysqlIO.checkErrorPacket(MysqlIO.java:3447)
	at com.mysql.jdbc.MysqlIO.sendCommand(MysqlIO.java:1951)
	at com.mysql.jdbc.MysqlIO.sqlQueryDirect(MysqlIO.java:2101)
	at com.mysql.jdbc.ConnectionImpl.execSQL(ConnectionImpl.java:2548)
	at com.mysql.jdbc.ConnectionImpl.execSQL(ConnectionImpl.java:2477)
	at com.mysql.jdbc.StatementImpl.executeQuery(StatementImpl.java:1422)
	at com.spice.yaari.agentproductivityDailymis.GenerateExcel.getAgentAlertExcel(GenerateExcel.java:151)
	at com.spice.yaari.agentproductivityDailymis.GenerateExcel.excelProcess(GenerateExcel.java:109)
	at com.spice.yaari.agentproductivityDailymis.AgentMis.main(AgentMis.java:33)

 11:54:33,160  DEBUG GenerateExcel             (117): java.lang.NullPointerException
	at com.spice.yaari.agentproductivityDailymis.GenerateExcel.getAgentAlertExcel(GenerateExcel.java:174)
	at com.spice.yaari.agentproductivityDailymis.GenerateExcel.excelProcess(GenerateExcel.java:109)
	at com.spice.yaari.agentproductivityDailymis.AgentMis.main(AgentMis.java:33)

 11:54:42,272  DEBUG MailHelper                (156): Message sent to ashish.guleria@spicedigital.in OK.
 11:54:42,272  DEBUG MailHelper                (159): Message sent to[CC] ashish.guleria@spicedigital.in OK.
 11:54:42,273  DEBUG MailHelper                (162): Message sent to[BCC] ashish.guleria@spicedigital.in OK.
 11:54:42,273  DEBUG MailHelper                (170): mail send
 11:54:42,273  DEBUG AgentMis                  (36): Program is END..
 11:57:26,956  DEBUG AgentMis                  (47): date return[20170518]
 11:57:27,870  DEBUG GenerateExcel             (136): connect is [com.mysql.jdbc.JDBC4Connection@290dbf45]
 11:57:27,908  DEBUG GenerateExcel             (150): Query is [select * from tbl_AgentProductivity;]
 11:57:27,913  DEBUG GenerateExcel             (172): java.lang.NullPointerException
	at com.spice.yaari.agentproductivityDailymis.GenerateExcel.getAgentAlertExcel(GenerateExcel.java:156)
	at com.spice.yaari.agentproductivityDailymis.GenerateExcel.excelProcess(GenerateExcel.java:109)
	at com.spice.yaari.agentproductivityDailymis.AgentMis.main(AgentMis.java:33)

 11:57:34,937  DEBUG MailHelper                (156): Message sent to ashish.guleria@spicedigital.in OK.
 11:57:34,939  DEBUG MailHelper                (159): Message sent to[CC] ashish.guleria@spicedigital.in OK.
 11:57:34,964  DEBUG MailHelper                (162): Message sent to[BCC] ashish.guleria@spicedigital.in OK.
 11:57:34,964  DEBUG MailHelper                (170): mail send
 11:57:34,965  DEBUG AgentMis                  (36): Program is END..
 11:58:49,416  DEBUG AgentMis                  (47): date return[20170518]
 11:58:50,396  DEBUG GenerateExcel             (136): connect is [com.mysql.jdbc.JDBC4Connection@290dbf45]
 11:58:50,437  DEBUG GenerateExcel             (150): Query is [select * from tbl_AgentProductivity;]
 11:58:50,453  DEBUG GenerateExcel             (172): java.sql.SQLException: Column ' Circle' not found.
	at com.mysql.jdbc.SQLError.createSQLException(SQLError.java:1055)
	at com.mysql.jdbc.SQLError.createSQLException(SQLError.java:956)
	at com.mysql.jdbc.SQLError.createSQLException(SQLError.java:926)
	at com.mysql.jdbc.ResultSetImpl.findColumn(ResultSetImpl.java:1136)
	at com.mysql.jdbc.ResultSetImpl.getInt(ResultSetImpl.java:2777)
	at com.spice.yaari.agentproductivityDailymis.GenerateExcel.getAgentAlertExcel(GenerateExcel.java:163)
	at com.spice.yaari.agentproductivityDailymis.GenerateExcel.excelProcess(GenerateExcel.java:109)
	at com.spice.yaari.agentproductivityDailymis.AgentMis.main(AgentMis.java:33)

 11:59:23,432  DEBUG MailHelper                (156): Message sent to ashish.guleria@spicedigital.in OK.
 11:59:23,433  DEBUG MailHelper                (159): Message sent to[CC] ashish.guleria@spicedigital.in OK.
 11:59:23,434  DEBUG MailHelper                (162): Message sent to[BCC] ashish.guleria@spicedigital.in OK.
 11:59:23,435  DEBUG MailHelper                (170): mail send
 11:59:23,436  DEBUG AgentMis                  (36): Program is END..
 12:07:21,623  DEBUG AgentMis                  (47): date return[20170518]
 12:07:22,548  DEBUG GenerateExcel             (136): connect is [com.mysql.jdbc.JDBC4Connection@290dbf45]
 12:07:22,582  DEBUG GenerateExcel             (150): Query is [select * from tbl_AgentProductivity;]
 12:07:22,597  DEBUG GenerateExcel             (173): java.sql.SQLException: Column ' Circle' not found.
	at com.mysql.jdbc.SQLError.createSQLException(SQLError.java:1055)
	at com.mysql.jdbc.SQLError.createSQLException(SQLError.java:956)
	at com.mysql.jdbc.SQLError.createSQLException(SQLError.java:926)
	at com.mysql.jdbc.ResultSetImpl.findColumn(ResultSetImpl.java:1136)
	at com.mysql.jdbc.ResultSetImpl.getInt(ResultSetImpl.java:2777)
	at com.spice.yaari.agentproductivityDailymis.GenerateExcel.getAgentAlertExcel(GenerateExcel.java:164)
	at com.spice.yaari.agentproductivityDailymis.GenerateExcel.excelProcess(GenerateExcel.java:109)
	at com.spice.yaari.agentproductivityDailymis.AgentMis.main(AgentMis.java:33)

 12:07:29,929  DEBUG MailHelper                (156): Message sent to ashish.guleria@spicedigital.in OK.
 12:07:29,930  DEBUG MailHelper                (159): Message sent to[CC] ashish.guleria@spicedigital.in OK.
 12:07:29,931  DEBUG MailHelper                (162): Message sent to[BCC] ashish.guleria@spicedigital.in OK.
 12:07:29,932  DEBUG MailHelper                (170): mail send
 12:07:29,933  DEBUG AgentMis                  (36): Program is END..
 12:08:40,466  DEBUG AgentMis                  (47): date return[20170518]
 12:08:41,570  DEBUG GenerateExcel             (136): connect is [com.mysql.jdbc.JDBC4Connection@290dbf45]
 12:08:41,612  DEBUG GenerateExcel             (150): Query is [select * from tbl_AgentProductivity;]
 12:08:41,636  DEBUG GenerateExcel             (173): java.sql.SQLException: Column 'NoAgentAvailable) ' not found.
	at com.mysql.jdbc.SQLError.createSQLException(SQLError.java:1055)
	at com.mysql.jdbc.SQLError.createSQLException(SQLError.java:956)
	at com.mysql.jdbc.SQLError.createSQLException(SQLError.java:926)
	at com.mysql.jdbc.ResultSetImpl.findColumn(ResultSetImpl.java:1136)
	at com.mysql.jdbc.ResultSetImpl.getInt(ResultSetImpl.java:2777)
	at com.spice.yaari.agentproductivityDailymis.GenerateExcel.getAgentAlertExcel(GenerateExcel.java:164)
	at com.spice.yaari.agentproductivityDailymis.GenerateExcel.excelProcess(GenerateExcel.java:109)
	at com.spice.yaari.agentproductivityDailymis.AgentMis.main(AgentMis.java:33)

 12:08:48,795  DEBUG MailHelper                (156): Message sent to ashish.guleria@spicedigital.in OK.
 12:08:48,797  DEBUG MailHelper                (159): Message sent to[CC] ashish.guleria@spicedigital.in OK.
 12:08:48,798  DEBUG MailHelper                (162): Message sent to[BCC] ashish.guleria@spicedigital.in OK.
 12:08:48,798  DEBUG MailHelper                (170): mail send
 12:08:48,799  DEBUG AgentMis                  (36): Program is END..
 12:09:14,040  DEBUG AgentMis                  (47): date return[20170518]
 12:09:14,964  DEBUG GenerateExcel             (136): connect is [com.mysql.jdbc.JDBC4Connection@290dbf45]
 12:09:14,996  DEBUG GenerateExcel             (150): Query is [select * from tbl_AgentProductivity;]
 12:09:15,036  DEBUG GenerateExcel             (173): java.sql.SQLException: Column 'NoAgentAvailable ' not found.
	at com.mysql.jdbc.SQLError.createSQLException(SQLError.java:1055)
	at com.mysql.jdbc.SQLError.createSQLException(SQLError.java:956)
	at com.mysql.jdbc.SQLError.createSQLException(SQLError.java:926)
	at com.mysql.jdbc.ResultSetImpl.findColumn(ResultSetImpl.java:1136)
	at com.mysql.jdbc.ResultSetImpl.getInt(ResultSetImpl.java:2777)
	at com.spice.yaari.agentproductivityDailymis.GenerateExcel.getAgentAlertExcel(GenerateExcel.java:164)
	at com.spice.yaari.agentproductivityDailymis.GenerateExcel.excelProcess(GenerateExcel.java:109)
	at com.spice.yaari.agentproductivityDailymis.AgentMis.main(AgentMis.java:33)

 12:09:23,355  DEBUG MailHelper                (156): Message sent to ashish.guleria@spicedigital.in OK.
 12:09:23,356  DEBUG MailHelper                (159): Message sent to[CC] ashish.guleria@spicedigital.in OK.
 12:09:23,357  DEBUG MailHelper                (162): Message sent to[BCC] ashish.guleria@spicedigital.in OK.
 12:09:23,358  DEBUG MailHelper                (170): mail send
 12:09:23,359  DEBUG AgentMis                  (36): Program is END..
 12:09:56,202  DEBUG AgentMis                  (47): date return[20170518]
 12:09:57,174  DEBUG GenerateExcel             (136): connect is [com.mysql.jdbc.JDBC4Connection@290dbf45]
 12:09:57,209  DEBUG GenerateExcel             (150): Query is [select * from tbl_AgentProductivity;]
 12:09:57,234  DEBUG GenerateExcel             (173): java.sql.SQLException: Column 'NoAgentAvailable ' not found.
	at com.mysql.jdbc.SQLError.createSQLException(SQLError.java:1055)
	at com.mysql.jdbc.SQLError.createSQLException(SQLError.java:956)
	at com.mysql.jdbc.SQLError.createSQLException(SQLError.java:926)
	at com.mysql.jdbc.ResultSetImpl.findColumn(ResultSetImpl.java:1136)
	at com.mysql.jdbc.ResultSetImpl.getInt(ResultSetImpl.java:2777)
	at com.spice.yaari.agentproductivityDailymis.GenerateExcel.getAgentAlertExcel(GenerateExcel.java:164)
	at com.spice.yaari.agentproductivityDailymis.GenerateExcel.excelProcess(GenerateExcel.java:109)
	at com.spice.yaari.agentproductivityDailymis.AgentMis.main(AgentMis.java:33)

 12:10:04,690  DEBUG MailHelper                (156): Message sent to ashish.guleria@spicedigital.in OK.
 12:10:04,691  DEBUG MailHelper                (159): Message sent to[CC] ashish.guleria@spicedigital.in OK.
 12:10:04,692  DEBUG MailHelper                (162): Message sent to[BCC] ashish.guleria@spicedigital.in OK.
 12:10:04,693  DEBUG MailHelper                (170): mail send
 12:10:04,694  DEBUG AgentMis                  (36): Program is END..
 12:11:56,201  DEBUG AgentMis                  (47): date return[20170518]
 12:11:57,101  DEBUG GenerateExcel             (136): connect is [com.mysql.jdbc.JDBC4Connection@290dbf45]
 12:11:57,134  DEBUG GenerateExcel             (150): Query is [select * from tbl_AgentProductivity;]
 12:12:04,594  DEBUG MailHelper                (156): Message sent to ashish.guleria@spicedigital.in OK.
 12:12:04,596  DEBUG MailHelper                (159): Message sent to[CC] ashish.guleria@spicedigital.in OK.
 12:12:04,597  DEBUG MailHelper                (162): Message sent to[BCC] ashish.guleria@spicedigital.in OK.
 12:12:04,598  DEBUG MailHelper                (170): mail send
 12:12:04,599  DEBUG AgentMis                  (36): Program is END..
 17:52:22,675  DEBUG AgentMis                  (47): date return[20170518]
 17:52:23,488  DEBUG GenerateExcel             (120): sheet handling is not there.
 17:52:36,210  DEBUG MailHelper                (156): Message sent to ashish.guleria@spicedigital.in OK.
 17:52:36,210  DEBUG MailHelper                (159): Message sent to[CC] ashish.guleria@spicedigital.in OK.
 17:52:36,211  DEBUG MailHelper                (162): Message sent to[BCC] ashish.guleria@spicedigital.in OK.
 17:52:36,211  DEBUG MailHelper                (170): mail send
 17:52:36,211  DEBUG AgentMis                  (36): Program is END..
 17:57:59,707  DEBUG AgentMis                  (47): date return[20170518]
 17:58:00,462  DEBUG GenerateExcel             (120): sheet handling is not there.
 17:58:00,531  DEBUG AgentMis                  (36): Program is END..
 18:00:03,024  DEBUG AgentMis                  (47): date return[20170518]
 18:00:03,813  DEBUG GenerateExcel             (120): sheet handling is not there.
 18:00:03,905  DEBUG AgentMis                  (36): Program is END..
 18:00:54,323  DEBUG AgentMis                  (47): date return[20170518]
 18:00:55,124  DEBUG GenerateExcel             (120): sheet handling is not there.
 18:00:55,127  DEBUG GenerateExcel             (221): java.io.FileNotFoundException: .\misData\!dea_YAARI_AgentProductivity_Daily_Report_20170518.xlsx (The process cannot access the file because it is being used by another process)
	at java.io.FileOutputStream.open0(Native Method)
	at java.io.FileOutputStream.open(Unknown Source)
	at java.io.FileOutputStream.<init>(Unknown Source)
	at java.io.FileOutputStream.<init>(Unknown Source)
	at com.spice.yaari.agentproductivityDailymis.GenerateExcel.saveExcels(GenerateExcel.java:217)
	at com.spice.yaari.agentproductivityDailymis.GenerateExcel.saveExcel(GenerateExcel.java:131)
	at com.spice.yaari.agentproductivityDailymis.GenerateExcel.excelProcess(GenerateExcel.java:123)
	at com.spice.yaari.agentproductivityDailymis.AgentMis.main(AgentMis.java:33)

 18:00:55,128  DEBUG GenerateExcel             (133): java.lang.NullPointerException
	at com.spice.yaari.agentproductivityDailymis.GenerateExcel.saveExcels(GenerateExcel.java:224)
	at com.spice.yaari.agentproductivityDailymis.GenerateExcel.saveExcel(GenerateExcel.java:131)
	at com.spice.yaari.agentproductivityDailymis.GenerateExcel.excelProcess(GenerateExcel.java:123)
	at com.spice.yaari.agentproductivityDailymis.AgentMis.main(AgentMis.java:33)

 18:00:55,128  DEBUG AgentMis                  (36): Program is END..
 18:01:22,368  DEBUG AgentMis                  (47): date return[20170518]
 18:01:23,113  DEBUG GenerateExcel             (120): sheet handling is not there.
 18:01:23,955  DEBUG AgentMis                  (36): Program is END..
 18:04:50,332  DEBUG AgentMis                  (47): date return[20170518]
 18:04:51,168  DEBUG GenerateExcel             (154): java.lang.IllegalArgumentException: Minumum row number is 0
	at org.apache.poi.ss.util.CellRangeAddressBase.validateRow(CellRangeAddressBase.java:63)
	at org.apache.poi.ss.util.CellRangeAddressBase.validate(CellRangeAddressBase.java:51)
	at org.apache.poi.xssf.usermodel.XSSFSheet.addMergedRegion(XSSFSheet.java:269)
	at com.spice.yaari.agentproductivityDailymis.GenerateExcel.getAgentHourlyWiseReport(GenerateExcel.java:148)
	at com.spice.yaari.agentproductivityDailymis.GenerateExcel.excelProcess(GenerateExcel.java:118)
	at com.spice.yaari.agentproductivityDailymis.AgentMis.main(AgentMis.java:33)

 18:04:51,171  DEBUG GenerateExcel             (221): java.io.FileNotFoundException: .\misData\!dea_YAARI_AgentProductivity_Daily_Report_20170518.xlsx (The process cannot access the file because it is being used by another process)
	at java.io.FileOutputStream.open0(Native Method)
	at java.io.FileOutputStream.open(Unknown Source)
	at java.io.FileOutputStream.<init>(Unknown Source)
	at java.io.FileOutputStream.<init>(Unknown Source)
	at com.spice.yaari.agentproductivityDailymis.GenerateExcel.saveExcels(GenerateExcel.java:217)
	at com.spice.yaari.agentproductivityDailymis.GenerateExcel.saveExcel(GenerateExcel.java:131)
	at com.spice.yaari.agentproductivityDailymis.GenerateExcel.excelProcess(GenerateExcel.java:123)
	at com.spice.yaari.agentproductivityDailymis.AgentMis.main(AgentMis.java:33)

 18:04:51,172  DEBUG GenerateExcel             (133): java.lang.NullPointerException
	at com.spice.yaari.agentproductivityDailymis.GenerateExcel.saveExcels(GenerateExcel.java:224)
	at com.spice.yaari.agentproductivityDailymis.GenerateExcel.saveExcel(GenerateExcel.java:131)
	at com.spice.yaari.agentproductivityDailymis.GenerateExcel.excelProcess(GenerateExcel.java:123)
	at com.spice.yaari.agentproductivityDailymis.AgentMis.main(AgentMis.java:33)

 18:04:51,172  DEBUG AgentMis                  (36): Program is END..
 18:05:03,600  DEBUG AgentMis                  (47): date return[20170518]
 18:05:04,378  DEBUG GenerateExcel             (154): java.lang.IllegalArgumentException: Minumum row number is 0
	at org.apache.poi.ss.util.CellRangeAddressBase.validateRow(CellRangeAddressBase.java:63)
	at org.apache.poi.ss.util.CellRangeAddressBase.validate(CellRangeAddressBase.java:51)
	at org.apache.poi.xssf.usermodel.XSSFSheet.addMergedRegion(XSSFSheet.java:269)
	at com.spice.yaari.agentproductivityDailymis.GenerateExcel.getAgentHourlyWiseReport(GenerateExcel.java:148)
	at com.spice.yaari.agentproductivityDailymis.GenerateExcel.excelProcess(GenerateExcel.java:118)
	at com.spice.yaari.agentproductivityDailymis.AgentMis.main(AgentMis.java:33)

 18:05:04,562  DEBUG AgentMis                  (36): Program is END..
 18:05:34,930  DEBUG AgentMis                  (47): date return[20170518]
 18:05:35,968  DEBUG AgentMis                  (36): Program is END..
 18:09:28,225  DEBUG AgentMis                  (47): date return[20170518]
 18:09:28,932  DEBUG GenerateExcel             (154): java.lang.IllegalArgumentException: Minumum row number is 0
	at org.apache.poi.ss.util.CellRangeAddressBase.validateRow(CellRangeAddressBase.java:63)
	at org.apache.poi.ss.util.CellRangeAddressBase.validate(CellRangeAddressBase.java:51)
	at org.apache.poi.xssf.usermodel.XSSFSheet.addMergedRegion(XSSFSheet.java:269)
	at com.spice.yaari.agentproductivityDailymis.GenerateExcel.getAgentHourlyWiseReport(GenerateExcel.java:148)
	at com.spice.yaari.agentproductivityDailymis.GenerateExcel.excelProcess(GenerateExcel.java:118)
	at com.spice.yaari.agentproductivityDailymis.AgentMis.main(AgentMis.java:33)

 18:09:29,032  DEBUG AgentMis                  (36): Program is END..
 18:11:39,413  DEBUG AgentMis                  (47): date return[20170518]
 18:11:40,335  DEBUG AgentMis                  (36): Program is END..
 18:13:12,294  DEBUG AgentMis                  (47): date return[20170518]
 18:13:13,312  DEBUG AgentMis                  (36): Program is END..
 18:18:44,878  DEBUG AgentMis                  (47): date return[20170518]
 18:18:45,859  DEBUG AgentMis                  (36): Program is END..
 18:19:46,366  DEBUG AgentMis                  (47): date return[20170518]
 18:19:47,178  DEBUG AgentMis                  (36): Program is END..
 18:22:28,348  DEBUG AgentMis                  (47): date return[20170518]
 18:22:29,170  DEBUG GenerateExcel             (234): java.io.FileNotFoundException: .\misData\!dea_YAARI_AgentProductivity_Daily_Report_20170518.xlsx (The process cannot access the file because it is being used by another process)
	at java.io.FileOutputStream.open0(Native Method)
	at java.io.FileOutputStream.open(Unknown Source)
	at java.io.FileOutputStream.<init>(Unknown Source)
	at java.io.FileOutputStream.<init>(Unknown Source)
	at com.spice.yaari.agentproductivityDailymis.GenerateExcel.saveExcels(GenerateExcel.java:230)
	at com.spice.yaari.agentproductivityDailymis.GenerateExcel.saveExcel(GenerateExcel.java:131)
	at com.spice.yaari.agentproductivityDailymis.GenerateExcel.excelProcess(GenerateExcel.java:123)
	at com.spice.yaari.agentproductivityDailymis.AgentMis.main(AgentMis.java:33)

 18:22:29,171  DEBUG GenerateExcel             (133): java.lang.NullPointerException
	at com.spice.yaari.agentproductivityDailymis.GenerateExcel.saveExcels(GenerateExcel.java:237)
	at com.spice.yaari.agentproductivityDailymis.GenerateExcel.saveExcel(GenerateExcel.java:131)
	at com.spice.yaari.agentproductivityDailymis.GenerateExcel.excelProcess(GenerateExcel.java:123)
	at com.spice.yaari.agentproductivityDailymis.AgentMis.main(AgentMis.java:33)

 18:22:29,172  DEBUG AgentMis                  (36): Program is END..
 18:22:40,687  DEBUG AgentMis                  (47): date return[20170518]
 18:22:41,568  DEBUG AgentMis                  (36): Program is END..
 18:23:30,268  DEBUG AgentMis                  (47): date return[20170518]
 18:23:31,112  DEBUG AgentMis                  (36): Program is END..
 18:25:09,269  DEBUG AgentMis                  (47): date return[20170518]
 18:25:09,979  DEBUG GenerateExcel             (168): java.lang.NullPointerException
	at com.spice.yaari.agentproductivityDailymis.GenerateExcel.getAgentHourlyWiseReport(GenerateExcel.java:162)
	at com.spice.yaari.agentproductivityDailymis.GenerateExcel.excelProcess(GenerateExcel.java:118)
	at com.spice.yaari.agentproductivityDailymis.AgentMis.main(AgentMis.java:33)

 18:25:10,082  DEBUG AgentMis                  (36): Program is END..
 18:25:36,914  DEBUG AgentMis                  (47): date return[20170518]
 18:25:37,619  DEBUG GenerateExcel             (168): java.lang.IllegalArgumentException: Minumum row number is 0
	at org.apache.poi.ss.util.CellRangeAddressBase.validateRow(CellRangeAddressBase.java:63)
	at org.apache.poi.ss.util.CellRangeAddressBase.validate(CellRangeAddressBase.java:51)
	at org.apache.poi.xssf.usermodel.XSSFSheet.addMergedRegion(XSSFSheet.java:269)
	at com.spice.yaari.agentproductivityDailymis.GenerateExcel.getAgentHourlyWiseReport(GenerateExcel.java:163)
	at com.spice.yaari.agentproductivityDailymis.GenerateExcel.excelProcess(GenerateExcel.java:118)
	at com.spice.yaari.agentproductivityDailymis.AgentMis.main(AgentMis.java:33)

 18:25:37,785  DEBUG AgentMis                  (36): Program is END..
 18:26:02,585  DEBUG AgentMis                  (47): date return[20170518]
 18:26:03,292  DEBUG GenerateExcel             (169): java.lang.IllegalArgumentException: Minumum row number is 0
	at org.apache.poi.ss.util.CellRangeAddressBase.validateRow(CellRangeAddressBase.java:63)
	at org.apache.poi.ss.util.CellRangeAddressBase.validate(CellRangeAddressBase.java:51)
	at org.apache.poi.xssf.usermodel.XSSFSheet.addMergedRegion(XSSFSheet.java:269)
	at com.spice.yaari.agentproductivityDailymis.GenerateExcel.getAgentHourlyWiseReport(GenerateExcel.java:164)
	at com.spice.yaari.agentproductivityDailymis.GenerateExcel.excelProcess(GenerateExcel.java:118)
	at com.spice.yaari.agentproductivityDailymis.AgentMis.main(AgentMis.java:33)

 18:26:03,414  DEBUG AgentMis                  (36): Program is END..
 18:26:20,346  DEBUG AgentMis                  (47): date return[20170518]
 18:26:21,133  DEBUG AgentMis                  (36): Program is END..
 18:35:11,405  DEBUG AgentMis                  (47): date return[20170518]
 18:35:12,310  DEBUG AgentMis                  (36): Program is END..
 18:39:21,112  DEBUG AgentMis                  (47): date return[20170518]
 18:39:21,930  DEBUG AgentMis                  (36): Program is END..
 18:40:42,912  DEBUG AgentMis                  (47): date return[20170518]
 18:40:43,744  DEBUG AgentMis                  (36): Program is END..
 18:45:42,698  DEBUG AgentMis                  (47): date return[20170518]
 18:45:43,526  DEBUG AgentMis                  (36): Program is END..
 18:47:59,837  DEBUG AgentMis                  (47): date return[20170518]
 18:48:00,680  DEBUG AgentMis                  (36): Program is END..
 18:49:45,490  DEBUG AgentMis                  (47): date return[20170518]
 18:49:46,444  DEBUG AgentMis                  (36): Program is END..
 18:52:24,924  DEBUG AgentMis                  (47): date return[20170518]
 18:52:25,797  DEBUG AgentMis                  (36): Program is END..
 18:53:54,219  DEBUG AgentMis                  (47): date return[20170518]
 18:53:55,067  DEBUG AgentMis                  (36): Program is END..
 20:17:57,595  DEBUG AgentMis                  (47): date return[20170518]
 20:18:02,350  DEBUG GenerateExcel             (187): connect is [com.mysql.jdbc.JDBC4Connection@70b0b186]
 20:18:02,352  DEBUG GenerateExcel             (193): Query is [select * from date(MisDate) as MisDate,Circle,MisHour,TotalIndialCalls,TotalIndialMous,TotalOutdialCalls,TotalOutdialMOU,AgentLoggedIn,AgentFree,AgentBusy,AgentNotAvailable tbl_yaariAgentHourlyReport where date(misDate)= '20170518' and misHour='@HOUR';]
 20:18:02,352  DEBUG GenerateExcel             (197): Query is [select * from date(MisDate) as MisDate,Circle,MisHour,TotalIndialCalls,TotalIndialMous,TotalOutdialCalls,TotalOutdialMOU,AgentLoggedIn,AgentFree,AgentBusy,AgentNotAvailable tbl_yaariAgentHourlyReport where date(misDate)= '20170518' and misHour='0';]
 20:18:02,477  DEBUG GenerateExcel             (220): com.mysql.jdbc.exceptions.jdbc4.MySQLSyntaxErrorException: You have an error in your SQL syntax; check the manual that corresponds to your MariaDB server version for the right syntax to use near '(MisDate) as MisDate,Circle,MisHour,TotalIndialCalls,TotalIndialMous,TotalOutdia' at line 1
	at sun.reflect.NativeConstructorAccessorImpl.newInstance0(Native Method)
	at sun.reflect.NativeConstructorAccessorImpl.newInstance(Unknown Source)
	at sun.reflect.DelegatingConstructorAccessorImpl.newInstance(Unknown Source)
	at java.lang.reflect.Constructor.newInstance(Unknown Source)
	at com.mysql.jdbc.Util.handleNewInstance(Util.java:406)
	at com.mysql.jdbc.Util.getInstance(Util.java:381)
	at com.mysql.jdbc.SQLError.createSQLException(SQLError.java:1030)
	at com.mysql.jdbc.SQLError.createSQLException(SQLError.java:956)
	at com.mysql.jdbc.MysqlIO.checkErrorPacket(MysqlIO.java:3515)
	at com.mysql.jdbc.MysqlIO.checkErrorPacket(MysqlIO.java:3447)
	at com.mysql.jdbc.MysqlIO.sendCommand(MysqlIO.java:1951)
	at com.mysql.jdbc.MysqlIO.sqlQueryDirect(MysqlIO.java:2101)
	at com.mysql.jdbc.ConnectionImpl.execSQL(ConnectionImpl.java:2548)
	at com.mysql.jdbc.ConnectionImpl.execSQL(ConnectionImpl.java:2477)
	at com.mysql.jdbc.StatementImpl.executeQuery(StatementImpl.java:1422)
	at com.spice.yaari.agentproductivityDailymis.GenerateExcel.getAgentHourlyWiseReport(GenerateExcel.java:198)
	at com.spice.yaari.agentproductivityDailymis.GenerateExcel.excelProcess(GenerateExcel.java:116)
	at com.spice.yaari.agentproductivityDailymis.AgentMis.main(AgentMis.java:33)

 20:18:02,479  DEBUG GenerateExcel             (123): java.lang.NullPointerException
	at com.spice.yaari.agentproductivityDailymis.GenerateExcel.getAgentHourlyWiseReport(GenerateExcel.java:222)
	at com.spice.yaari.agentproductivityDailymis.GenerateExcel.excelProcess(GenerateExcel.java:116)
	at com.spice.yaari.agentproductivityDailymis.AgentMis.main(AgentMis.java:33)

 20:18:02,480  DEBUG AgentMis                  (36): Program is END..
 20:18:57,140  DEBUG AgentMis                  (47): date return[20170518]
 20:18:58,263  DEBUG GenerateExcel             (187): connect is [com.mysql.jdbc.JDBC4Connection@70b0b186]
 20:18:58,264  DEBUG GenerateExcel             (193): Query is [select date(MisDate) as MisDate,Circle,MisHour,TotalIndialCalls,TotalIndialMous,TotalOutdialCalls,TotalOutdialMOU,AgentLoggedIn,AgentFree,AgentBusy,AgentNotAvailable tbl_yaariAgentHourlyReport where date(misDate)= '20170518' and misHour='@HOUR';]
 20:18:58,264  DEBUG GenerateExcel             (197): Query is [select date(MisDate) as MisDate,Circle,MisHour,TotalIndialCalls,TotalIndialMous,TotalOutdialCalls,TotalOutdialMOU,AgentLoggedIn,AgentFree,AgentBusy,AgentNotAvailable tbl_yaariAgentHourlyReport where date(misDate)= '20170518' and misHour='0';]
 20:18:58,331  DEBUG GenerateExcel             (220): com.mysql.jdbc.exceptions.jdbc4.MySQLSyntaxErrorException: You have an error in your SQL syntax; check the manual that corresponds to your MariaDB server version for the right syntax to use near 'where date(misDate)= '20170518' and misHour='0'' at line 1
	at sun.reflect.NativeConstructorAccessorImpl.newInstance0(Native Method)
	at sun.reflect.NativeConstructorAccessorImpl.newInstance(Unknown Source)
	at sun.reflect.DelegatingConstructorAccessorImpl.newInstance(Unknown Source)
	at java.lang.reflect.Constructor.newInstance(Unknown Source)
	at com.mysql.jdbc.Util.handleNewInstance(Util.java:406)
	at com.mysql.jdbc.Util.getInstance(Util.java:381)
	at com.mysql.jdbc.SQLError.createSQLException(SQLError.java:1030)
	at com.mysql.jdbc.SQLError.createSQLException(SQLError.java:956)
	at com.mysql.jdbc.MysqlIO.checkErrorPacket(MysqlIO.java:3515)
	at com.mysql.jdbc.MysqlIO.checkErrorPacket(MysqlIO.java:3447)
	at com.mysql.jdbc.MysqlIO.sendCommand(MysqlIO.java:1951)
	at com.mysql.jdbc.MysqlIO.sqlQueryDirect(MysqlIO.java:2101)
	at com.mysql.jdbc.ConnectionImpl.execSQL(ConnectionImpl.java:2548)
	at com.mysql.jdbc.ConnectionImpl.execSQL(ConnectionImpl.java:2477)
	at com.mysql.jdbc.StatementImpl.executeQuery(StatementImpl.java:1422)
	at com.spice.yaari.agentproductivityDailymis.GenerateExcel.getAgentHourlyWiseReport(GenerateExcel.java:198)
	at com.spice.yaari.agentproductivityDailymis.GenerateExcel.excelProcess(GenerateExcel.java:116)
	at com.spice.yaari.agentproductivityDailymis.AgentMis.main(AgentMis.java:33)

 20:18:58,331  DEBUG GenerateExcel             (123): java.lang.NullPointerException
	at com.spice.yaari.agentproductivityDailymis.GenerateExcel.getAgentHourlyWiseReport(GenerateExcel.java:222)
	at com.spice.yaari.agentproductivityDailymis.GenerateExcel.excelProcess(GenerateExcel.java:116)
	at com.spice.yaari.agentproductivityDailymis.AgentMis.main(AgentMis.java:33)

 20:18:58,332  DEBUG AgentMis                  (36): Program is END..
 20:19:43,154  DEBUG AgentMis                  (47): date return[20170518]
 20:19:44,133  DEBUG GenerateExcel             (187): connect is [com.mysql.jdbc.JDBC4Connection@70b0b186]
 20:19:44,134  DEBUG GenerateExcel             (193): Query is [select date(MisDate) as MisDate,Circle,MisHour,TotalIndialCalls,TotalIndialMous,TotalOutdialCalls,TotalOutdialMOU,AgentLoggedIn,AgentFree,AgentBusy,AgentNotAvailable from tbl_yaariAgentHourlyReport where date(misDate)= '20170518' and misHour='@HOUR';]
 20:19:44,135  DEBUG GenerateExcel             (197): Query is [select date(MisDate) as MisDate,Circle,MisHour,TotalIndialCalls,TotalIndialMous,TotalOutdialCalls,TotalOutdialMOU,AgentLoggedIn,AgentFree,AgentBusy,AgentNotAvailable from tbl_yaariAgentHourlyReport where date(misDate)= '20170518' and misHour='0';]
 20:19:44,151  DEBUG GenerateExcel             (220): java.lang.NullPointerException
	at com.spice.yaari.agentproductivityDailymis.GenerateExcel.getAgentHourlyWiseReport(GenerateExcel.java:201)
	at com.spice.yaari.agentproductivityDailymis.GenerateExcel.excelProcess(GenerateExcel.java:116)
	at com.spice.yaari.agentproductivityDailymis.AgentMis.main(AgentMis.java:33)

 20:19:45,649  DEBUG AgentMis                  (36): Program is END..
 20:25:07,141  DEBUG AgentMis                  (47): date return[20170518]
 20:25:08,097  DEBUG GenerateExcel             (187): connect is [com.mysql.jdbc.JDBC4Connection@70b0b186]
 20:25:08,098  DEBUG GenerateExcel             (193): Query is [select date(MisDate) as MisDate,Circle,MisHour,TotalIndialCalls,TotalIndialMous,TotalOutdialCalls,TotalOutdialMOU,AgentLoggedIn,AgentFree,AgentBusy,AgentNotAvailable from tbl_yaariAgentHourlyReport where date(misDate)= '20170518' and misHour='@HOUR';]
 20:25:08,099  DEBUG GenerateExcel             (197): Query is [select date(MisDate) as MisDate,Circle,MisHour,TotalIndialCalls,TotalIndialMous,TotalOutdialCalls,TotalOutdialMOU,AgentLoggedIn,AgentFree,AgentBusy,AgentNotAvailable from tbl_yaariAgentHourlyReport where date(misDate)= '20170518' and misHour='0';]
 20:25:08,104  DEBUG GenerateExcel             (221): java.lang.NullPointerException
	at com.spice.yaari.agentproductivityDailymis.GenerateExcel.getAgentHourlyWiseReport(GenerateExcel.java:201)
	at com.spice.yaari.agentproductivityDailymis.GenerateExcel.excelProcess(GenerateExcel.java:116)
	at com.spice.yaari.agentproductivityDailymis.AgentMis.main(AgentMis.java:33)

 20:25:08,222  DEBUG AgentMis                  (36): Program is END..
 20:25:57,531  DEBUG AgentMis                  (47): date return[20170518]
 20:25:58,491  DEBUG GenerateExcel             (187): connect is [com.mysql.jdbc.JDBC4Connection@70b0b186]
 20:25:58,492  DEBUG GenerateExcel             (194): Query is [select date(MisDate) as MisDate,Circle,MisHour,TotalIndialCalls,TotalIndialMous,TotalOutdialCalls,TotalOutdialMOU,AgentLoggedIn,AgentFree,AgentBusy,AgentNotAvailable from tbl_yaariAgentHourlyReport where date(misDate)= '20170518' and misHour='@HOUR';]
 20:25:58,492  DEBUG GenerateExcel             (198): Query is [select date(MisDate) as MisDate,Circle,MisHour,TotalIndialCalls,TotalIndialMous,TotalOutdialCalls,TotalOutdialMOU,AgentLoggedIn,AgentFree,AgentBusy,AgentNotAvailable from tbl_yaariAgentHourlyReport where date(misDate)= '20170518' and misHour='0';]
 20:25:58,504  DEBUG GenerateExcel             (222): java.sql.SQLException: Column 'agent_location' not found.
	at com.mysql.jdbc.SQLError.createSQLException(SQLError.java:1055)
	at com.mysql.jdbc.SQLError.createSQLException(SQLError.java:956)
	at com.mysql.jdbc.SQLError.createSQLException(SQLError.java:926)
	at com.mysql.jdbc.ResultSetImpl.findColumn(ResultSetImpl.java:1136)
	at com.mysql.jdbc.ResultSetImpl.getInt(ResultSetImpl.java:2777)
	at com.spice.yaari.agentproductivityDailymis.GenerateExcel.getAgentHourlyWiseReport(GenerateExcel.java:211)
	at com.spice.yaari.agentproductivityDailymis.GenerateExcel.excelProcess(GenerateExcel.java:116)
	at com.spice.yaari.agentproductivityDailymis.AgentMis.main(AgentMis.java:33)

 20:25:58,650  DEBUG AgentMis                  (36): Program is END..
 20:27:09,000  DEBUG AgentMis                  (47): date return[20170518]
 20:27:10,154  DEBUG GenerateExcel             (187): connect is [com.mysql.jdbc.JDBC4Connection@70b0b186]
 20:27:10,154  DEBUG GenerateExcel             (194): Query is [select date(MisDate) as MisDate,Circle,MisHour,TotalIndialCalls,TotalIndialMous,TotalOutdialCalls,TotalOutdialMOU,AgentLoggedIn,AgentFree,AgentBusy,AgentNotAvailable from tbl_yaariAgentHourlyReport where date(misDate)= '20170518' and misHour='@HOUR';]
 20:27:10,155  DEBUG GenerateExcel             (198): Query is [select date(MisDate) as MisDate,Circle,MisHour,TotalIndialCalls,TotalIndialMous,TotalOutdialCalls,TotalOutdialMOU,AgentLoggedIn,AgentFree,AgentBusy,AgentNotAvailable from tbl_yaariAgentHourlyReport where date(misDate)= '20170518' and misHour='0';]
 20:27:10,168  DEBUG GenerateExcel             (222): java.sql.SQLException: Column 'agent_location' not found.
	at com.mysql.jdbc.SQLError.createSQLException(SQLError.java:1055)
	at com.mysql.jdbc.SQLError.createSQLException(SQLError.java:956)
	at com.mysql.jdbc.SQLError.createSQLException(SQLError.java:926)
	at com.mysql.jdbc.ResultSetImpl.findColumn(ResultSetImpl.java:1136)
	at com.mysql.jdbc.ResultSetImpl.getInt(ResultSetImpl.java:2777)
	at com.spice.yaari.agentproductivityDailymis.GenerateExcel.getAgentHourlyWiseReport(GenerateExcel.java:211)
	at com.spice.yaari.agentproductivityDailymis.GenerateExcel.excelProcess(GenerateExcel.java:116)
	at com.spice.yaari.agentproductivityDailymis.AgentMis.main(AgentMis.java:33)

 20:27:10,291  DEBUG AgentMis                  (36): Program is END..
 20:28:01,980  DEBUG AgentMis                  (47): date return[20170518]
 20:28:02,976  DEBUG GenerateExcel             (187): connect is [com.mysql.jdbc.JDBC4Connection@70b0b186]
 20:28:02,976  DEBUG GenerateExcel             (193): Query is [select date(MisDate) as MisDate,Circle,MisHour,TotalIndialCalls,TotalIndialMous,TotalOutdialCalls,TotalOutdialMOU,AgentLoggedIn,AgentFree,AgentBusy,AgentNotAvailable from tbl_yaariAgentHourlyReport where date(misDate)= '20170518' and misHour='@HOUR';]
 20:28:02,977  DEBUG GenerateExcel             (197): Query is [select date(MisDate) as MisDate,Circle,MisHour,TotalIndialCalls,TotalIndialMous,TotalOutdialCalls,TotalOutdialMOU,AgentLoggedIn,AgentFree,AgentBusy,AgentNotAvailable from tbl_yaariAgentHourlyReport where date(misDate)= '20170518' and misHour='0';]
 20:28:02,989  DEBUG GenerateExcel             (221): java.sql.SQLException: Column 'agent_location' not found.
	at com.mysql.jdbc.SQLError.createSQLException(SQLError.java:1055)
	at com.mysql.jdbc.SQLError.createSQLException(SQLError.java:956)
	at com.mysql.jdbc.SQLError.createSQLException(SQLError.java:926)
	at com.mysql.jdbc.ResultSetImpl.findColumn(ResultSetImpl.java:1136)
	at com.mysql.jdbc.ResultSetImpl.getInt(ResultSetImpl.java:2777)
	at com.spice.yaari.agentproductivityDailymis.GenerateExcel.getAgentHourlyWiseReport(GenerateExcel.java:210)
	at com.spice.yaari.agentproductivityDailymis.GenerateExcel.excelProcess(GenerateExcel.java:116)
	at com.spice.yaari.agentproductivityDailymis.AgentMis.main(AgentMis.java:33)

 20:28:03,081  DEBUG AgentMis                  (36): Program is END..
 20:30:06,977  DEBUG AgentMis                  (47): date return[20170518]
 20:30:07,960  DEBUG GenerateExcel             (188): connect is [com.mysql.jdbc.JDBC4Connection@70b0b186]
 20:30:07,961  DEBUG GenerateExcel             (194): Query is [select date(MisDate) as MisDate,Circle,MisHour,TotalIndialCalls,TotalIndialMous,TotalOutdialCalls,TotalOutdialMOU,AgentLoggedIn,AgentFree,AgentBusy,AgentNotAvailable from tbl_yaariAgentHourlyReport where date(misDate)= '20170518' and misHour='@HOUR';]
 20:30:07,961  DEBUG GenerateExcel             (198): Query is [select date(MisDate) as MisDate,Circle,MisHour,TotalIndialCalls,TotalIndialMous,TotalOutdialCalls,TotalOutdialMOU,AgentLoggedIn,AgentFree,AgentBusy,AgentNotAvailable from tbl_yaariAgentHourlyReport where date(misDate)= '20170518' and misHour='0';]
 20:30:07,976  DEBUG GenerateExcel             (222): java.sql.SQLException: Column 'agent_location' not found.
	at com.mysql.jdbc.SQLError.createSQLException(SQLError.java:1055)
	at com.mysql.jdbc.SQLError.createSQLException(SQLError.java:956)
	at com.mysql.jdbc.SQLError.createSQLException(SQLError.java:926)
	at com.mysql.jdbc.ResultSetImpl.findColumn(ResultSetImpl.java:1136)
	at com.mysql.jdbc.ResultSetImpl.getInt(ResultSetImpl.java:2777)
	at com.spice.yaari.agentproductivityDailymis.GenerateExcel.getAgentHourlyWiseReport(GenerateExcel.java:211)
	at com.spice.yaari.agentproductivityDailymis.GenerateExcel.excelProcess(GenerateExcel.java:117)
	at com.spice.yaari.agentproductivityDailymis.AgentMis.main(AgentMis.java:33)

 20:30:08,121  DEBUG AgentMis                  (36): Program is END..
 20:30:57,457  DEBUG AgentMis                  (47): date return[20170518]
 20:30:58,471  DEBUG GenerateExcel             (188): connect is [com.mysql.jdbc.JDBC4Connection@70b0b186]
 20:30:58,472  DEBUG GenerateExcel             (194): Query is [select date(MisDate) as MisDate,Circle,MisHour,TotalIndialCalls,TotalIndialMous,TotalOutdialCalls,TotalOutdialMOU,AgentLoggedIn,AgentFree,AgentBusy,AgentNotAvailable from tbl_yaariAgentHourlyReport where date(misDate)= '20170518' and misHour='@HOUR';]
 20:30:58,473  DEBUG GenerateExcel             (198): Query is [select date(MisDate) as MisDate,Circle,MisHour,TotalIndialCalls,TotalIndialMous,TotalOutdialCalls,TotalOutdialMOU,AgentLoggedIn,AgentFree,AgentBusy,AgentNotAvailable from tbl_yaariAgentHourlyReport where date(misDate)= '20170518' and misHour='0';]
 20:30:58,556  DEBUG GenerateExcel             (198): Query is [select date(MisDate) as MisDate,Circle,MisHour,TotalIndialCalls,TotalIndialMous,TotalOutdialCalls,TotalOutdialMOU,AgentLoggedIn,AgentFree,AgentBusy,AgentNotAvailable from tbl_yaariAgentHourlyReport where date(misDate)= '20170518' and misHour='1';]
 20:30:58,634  DEBUG GenerateExcel             (198): Query is [select date(MisDate) as MisDate,Circle,MisHour,TotalIndialCalls,TotalIndialMous,TotalOutdialCalls,TotalOutdialMOU,AgentLoggedIn,AgentFree,AgentBusy,AgentNotAvailable from tbl_yaariAgentHourlyReport where date(misDate)= '20170518' and misHour='2';]
 20:30:58,684  DEBUG GenerateExcel             (198): Query is [select date(MisDate) as MisDate,Circle,MisHour,TotalIndialCalls,TotalIndialMous,TotalOutdialCalls,TotalOutdialMOU,AgentLoggedIn,AgentFree,AgentBusy,AgentNotAvailable from tbl_yaariAgentHourlyReport where date(misDate)= '20170518' and misHour='3';]
 20:30:58,739  DEBUG GenerateExcel             (198): Query is [select date(MisDate) as MisDate,Circle,MisHour,TotalIndialCalls,TotalIndialMous,TotalOutdialCalls,TotalOutdialMOU,AgentLoggedIn,AgentFree,AgentBusy,AgentNotAvailable from tbl_yaariAgentHourlyReport where date(misDate)= '20170518' and misHour='4';]
 20:30:58,784  DEBUG GenerateExcel             (198): Query is [select date(MisDate) as MisDate,Circle,MisHour,TotalIndialCalls,TotalIndialMous,TotalOutdialCalls,TotalOutdialMOU,AgentLoggedIn,AgentFree,AgentBusy,AgentNotAvailable from tbl_yaariAgentHourlyReport where date(misDate)= '20170518' and misHour='5';]
 20:30:58,841  DEBUG GenerateExcel             (198): Query is [select date(MisDate) as MisDate,Circle,MisHour,TotalIndialCalls,TotalIndialMous,TotalOutdialCalls,TotalOutdialMOU,AgentLoggedIn,AgentFree,AgentBusy,AgentNotAvailable from tbl_yaariAgentHourlyReport where date(misDate)= '20170518' and misHour='6';]
 20:30:58,872  DEBUG GenerateExcel             (198): Query is [select date(MisDate) as MisDate,Circle,MisHour,TotalIndialCalls,TotalIndialMous,TotalOutdialCalls,TotalOutdialMOU,AgentLoggedIn,AgentFree,AgentBusy,AgentNotAvailable from tbl_yaariAgentHourlyReport where date(misDate)= '20170518' and misHour='7';]
 20:30:58,912  DEBUG GenerateExcel             (198): Query is [select date(MisDate) as MisDate,Circle,MisHour,TotalIndialCalls,TotalIndialMous,TotalOutdialCalls,TotalOutdialMOU,AgentLoggedIn,AgentFree,AgentBusy,AgentNotAvailable from tbl_yaariAgentHourlyReport where date(misDate)= '20170518' and misHour='8';]
 20:30:58,968  DEBUG GenerateExcel             (198): Query is [select date(MisDate) as MisDate,Circle,MisHour,TotalIndialCalls,TotalIndialMous,TotalOutdialCalls,TotalOutdialMOU,AgentLoggedIn,AgentFree,AgentBusy,AgentNotAvailable from tbl_yaariAgentHourlyReport where date(misDate)= '20170518' and misHour='9';]
 20:30:58,995  DEBUG GenerateExcel             (198): Query is [select date(MisDate) as MisDate,Circle,MisHour,TotalIndialCalls,TotalIndialMous,TotalOutdialCalls,TotalOutdialMOU,AgentLoggedIn,AgentFree,AgentBusy,AgentNotAvailable from tbl_yaariAgentHourlyReport where date(misDate)= '20170518' and misHour='10';]
 20:30:59,088  DEBUG GenerateExcel             (198): Query is [select date(MisDate) as MisDate,Circle,MisHour,TotalIndialCalls,TotalIndialMous,TotalOutdialCalls,TotalOutdialMOU,AgentLoggedIn,AgentFree,AgentBusy,AgentNotAvailable from tbl_yaariAgentHourlyReport where date(misDate)= '20170518' and misHour='11';]
 20:30:59,117  DEBUG GenerateExcel             (198): Query is [select date(MisDate) as MisDate,Circle,MisHour,TotalIndialCalls,TotalIndialMous,TotalOutdialCalls,TotalOutdialMOU,AgentLoggedIn,AgentFree,AgentBusy,AgentNotAvailable from tbl_yaariAgentHourlyReport where date(misDate)= '20170518' and misHour='12';]
 20:30:59,142  DEBUG GenerateExcel             (198): Query is [select date(MisDate) as MisDate,Circle,MisHour,TotalIndialCalls,TotalIndialMous,TotalOutdialCalls,TotalOutdialMOU,AgentLoggedIn,AgentFree,AgentBusy,AgentNotAvailable from tbl_yaariAgentHourlyReport where date(misDate)= '20170518' and misHour='13';]
 20:30:59,168  DEBUG GenerateExcel             (198): Query is [select date(MisDate) as MisDate,Circle,MisHour,TotalIndialCalls,TotalIndialMous,TotalOutdialCalls,TotalOutdialMOU,AgentLoggedIn,AgentFree,AgentBusy,AgentNotAvailable from tbl_yaariAgentHourlyReport where date(misDate)= '20170518' and misHour='14';]
 20:30:59,219  DEBUG GenerateExcel             (198): Query is [select date(MisDate) as MisDate,Circle,MisHour,TotalIndialCalls,TotalIndialMous,TotalOutdialCalls,TotalOutdialMOU,AgentLoggedIn,AgentFree,AgentBusy,AgentNotAvailable from tbl_yaariAgentHourlyReport where date(misDate)= '20170518' and misHour='15';]
 20:30:59,242  DEBUG GenerateExcel             (198): Query is [select date(MisDate) as MisDate,Circle,MisHour,TotalIndialCalls,TotalIndialMous,TotalOutdialCalls,TotalOutdialMOU,AgentLoggedIn,AgentFree,AgentBusy,AgentNotAvailable from tbl_yaariAgentHourlyReport where date(misDate)= '20170518' and misHour='16';]
 20:30:59,266  DEBUG GenerateExcel             (198): Query is [select date(MisDate) as MisDate,Circle,MisHour,TotalIndialCalls,TotalIndialMous,TotalOutdialCalls,TotalOutdialMOU,AgentLoggedIn,AgentFree,AgentBusy,AgentNotAvailable from tbl_yaariAgentHourlyReport where date(misDate)= '20170518' and misHour='17';]
 20:30:59,293  DEBUG GenerateExcel             (198): Query is [select date(MisDate) as MisDate,Circle,MisHour,TotalIndialCalls,TotalIndialMous,TotalOutdialCalls,TotalOutdialMOU,AgentLoggedIn,AgentFree,AgentBusy,AgentNotAvailable from tbl_yaariAgentHourlyReport where date(misDate)= '20170518' and misHour='18';]
 20:30:59,360  DEBUG GenerateExcel             (198): Query is [select date(MisDate) as MisDate,Circle,MisHour,TotalIndialCalls,TotalIndialMous,TotalOutdialCalls,TotalOutdialMOU,AgentLoggedIn,AgentFree,AgentBusy,AgentNotAvailable from tbl_yaariAgentHourlyReport where date(misDate)= '20170518' and misHour='19';]
 20:30:59,379  DEBUG GenerateExcel             (198): Query is [select date(MisDate) as MisDate,Circle,MisHour,TotalIndialCalls,TotalIndialMous,TotalOutdialCalls,TotalOutdialMOU,AgentLoggedIn,AgentFree,AgentBusy,AgentNotAvailable from tbl_yaariAgentHourlyReport where date(misDate)= '20170518' and misHour='20';]
 20:30:59,399  DEBUG GenerateExcel             (198): Query is [select date(MisDate) as MisDate,Circle,MisHour,TotalIndialCalls,TotalIndialMous,TotalOutdialCalls,TotalOutdialMOU,AgentLoggedIn,AgentFree,AgentBusy,AgentNotAvailable from tbl_yaariAgentHourlyReport where date(misDate)= '20170518' and misHour='21';]
 20:30:59,416  DEBUG GenerateExcel             (198): Query is [select date(MisDate) as MisDate,Circle,MisHour,TotalIndialCalls,TotalIndialMous,TotalOutdialCalls,TotalOutdialMOU,AgentLoggedIn,AgentFree,AgentBusy,AgentNotAvailable from tbl_yaariAgentHourlyReport where date(misDate)= '20170518' and misHour='22';]
 20:30:59,436  DEBUG GenerateExcel             (198): Query is [select date(MisDate) as MisDate,Circle,MisHour,TotalIndialCalls,TotalIndialMous,TotalOutdialCalls,TotalOutdialMOU,AgentLoggedIn,AgentFree,AgentBusy,AgentNotAvailable from tbl_yaariAgentHourlyReport where date(misDate)= '20170518' and misHour='23';]
 20:30:59,898  DEBUG AgentMis                  (36): Program is END..
 